<?xml version="1.0" encoding="UTF-8"?>
<svg width="40px" height="40px" viewBox="0 0 40 40" version="1.1" xmlns="http://www.w3.org/2000/svg" xmlns:xlink="http://www.w3.org/1999/xlink">
    <!-- Generator: Sketch 50.2 (55047) - http://www.bohemiancoding.com/sketch -->
    <title>Artboard 2</title>
    <desc>Created with Sketch.</desc>
    <defs></defs>
    <g id="Artboard-2" stroke="none" stroke-width="1" fill="none" fill-rule="evenodd">
        <g id="Group-8">
            <rect id="Rectangle-9" x="0" y="0" width="40" height="40"></rect>
        </g>
        <polyline id="Rectangle-12" stroke="#FFFFFF" stroke-width="2" transform="translate(15.500000, 20.500000) rotate(-315.000000) translate(-15.500000, -20.500000) " points="8 13 23 13 23 28"></polyline>
    </g>
</svg>