<?xml version="1.0" encoding="UTF-8"?>
<svg width="24px" height="24px" viewBox="0 0 24 24" version="1.1" xmlns="http://www.w3.org/2000/svg" xmlns:xlink="http://www.w3.org/1999/xlink">
    <!-- Generator: Sketch 50.2 (55047) - http://www.bohemiancoding.com/sketch -->
    <title>left-arrow</title>
    <desc>Created with Sketch.</desc>
    <defs></defs>
    <g id="left-arrow" stroke="none" stroke-width="1" fill="none" fill-rule="evenodd">
        <polyline id="Rectangle-11" stroke="#3C3C3C" stroke-width="2" transform="translate(16.000000, 12.000000) rotate(-315.000000) translate(-16.000000, -12.000000) " points="23 19 9 19 9 5 9 5"></polyline>
    </g>
</svg>